band name,song no,song title
the doors,1,alabama song (whisky bar)
led zeppelin,1,stairway to heaven
,2,good times bad times
deep purple,1,smoke on the water
king crimson,1,21st century schizoid man
pink floyd,1,goodbye blue sky
,2,wish you were here
,3,"another brick in the wall, pt. 1"
the beatles,1,yellow submarine
,2,hey jude
